{
"spider":"./box/spider/wj240108.jar",
"warningText":"正在加载!请稍后!Sina微博@·王健·",
"wallpaper":"./box/wallpaper/8K01.jpg",

"lives":[
{"name":"无界🌏IPV6+IPV4","type":0,"url":"./box/live/live.txt","playerType":1,"ua":"okhttp/3.15","epg":"http://epg.112114.xyz/?ch={name}&date={date}","logo":"https://epg.112114.xyz/logo/{name}.png"},
{"name":"FMM🌏IPV6","type":0,"url":"https://live.fanmingming.com/tv/m3u/ipv6.m3u","playerType":1,"ua":"okhttp/3.15","epg":"http://epg.112114.xyz/?ch={name}&date={date}","logo":"https://epg.112114.xyz/logo/{name}.png"}, 
{"name":"FMM🌏Radio","type":0,"url":"https://fongmi.cachefly.net/fanmingming/live/main/radio/m3u/index.m3u","playerType":1},
{"name":"MV🌏16万部","type":0,"url":"https://fongmi.cachefly.net/lystv/short/main/影视/tvb/MTV.txt"},
{"name":"饭太硬🌏IPV6+IPV4","type":0,"url":"https://xhdwc.tk/tvlive.txt","playerType":1,"ua": "okhttp/3.15","epg":"http://epg.112114.xyz/?ch={name}&date={date}","logo": "https://epg.112114.xyz/logo/{name}.png"},
{"name":"肥猫🌏IPV6+IPV4","type":0,"url":"http://我不是.肥猫.live/TV/tvzb.txt","playerType":1,"epg":"http://epg.112114.xyz/?ch={name}&date={date}","logo":"https://epg.112114.xyz/logo/{name}.png"},
{"name":"俊于🌏IPV6+IPV4","type":0,"url":"http://home.jundie.top:81/Cat/tv/live.txt","playerType":1,"epg":"http://epg.112114.xyz/?ch={name}&date={date}","logo": "https://epg.112114.xyz/logo/{name}.png"},
{"name":"YanG🌏IPV6+IPV4","type":0,"url":"https://fongmi.cachefly.net/YanG-1989/m3u/main/Gather.m3u","playerType":1,"epg":"http://epg.112114.xyz/?ch={name}&date={date}","logo":"https://epg.112114.xyz/logo/{name}.png"},
{"name":"YueChan🌏IPV6","type":0,"url":"https://fongmi.cachefly.net/YueChan/Live/main/IPTV.m3u","playerType":1,"epg":"http://epg.112114.xyz/?ch={name}&date={date}","logo":"https://epg.112114.xyz/logo/{name}.png"},
{"name":"Yoursmile7🌏PV6+IPV4","type":0,"url":"https://agit.ai/Yoursmile7/TVBox/raw/branch/master/live.txt","playerType":1,"epg":"http://epg.112114.xyz/?ch={name}&date={date}","logo":"https://epg.112114.xyz/logo/{name}.png"},
{"name":"肥羊🌏斗鱼","type":0,"url":"https://fongmi.cachefly.net/Ftindy/IPTV-URL/main/douyuyqk.m3u","playerType":1},
{"name":"YuanHsing🌏YouTube","type":0,"url":"https://fongmi.cachefly.net/YuanHsing/YouTube_to_m3u/main/youtube.m3u"}, 
{"name":"无界🌏Beta🈲","type":0,"url":"./box/live/beta.txt","playerType":1,"ua":"okhttp/3.15","epg":"http://epg.112114.xyz/?ch={name}&date={date}","logo":"https://epg.112114.xyz/logo/{name}.png"}

], 


"sites":[
    
{"key":"豆瓣","name":"无界🌏QQ群48481548🌙V24.01.09","type":3,"api":"./box/js/drpy2.min.js","ext":"./box/js/douban.js","jar":"./box/spider/tz.jar"},
{"key":"豆豆","name":"无界🌏豆瓣","type":3,"api":"csp_DouDou","searchable":0,"quickSearch":0,"filterable":0},
{"key":"商店","name":"无界🌏Fongmi商店","type":3,"api":"csp_Market","searchable":0,"changeable":0,"ext":"./box/json/market.json","jar":"./box/spider/app.jar"},
{"key":"本地","name":"无界🌏本地存储","type":3,"api":"csp_Local","searchable":0,"changeable":0},
{"key":"csp_KungFu404","name":"无界🌏设置Token","type":3,"api":"csp_KungFu404","searchable":0,"filterable":0,"changeable":0,"ext":"http://127.0.0.1:9978/file/tvbox/tok.txt","jar":"./box/spider/alibaba.jar"},
{"key":"AList","name":"无界🌏AList","type":3,"api":"csp_AList","searchable":1,"changeable":0,"ext":"./box/json/alist.json"},
{"key":"WebDAV","name":"无界🌏WebDAV","type":3,"api":"csp_WebDAV","searchable":1,"changeable":0,"ext":"./box/json/webdav.json"},
{"key":"玩偶哥哥","name":"无界🌏玩偶哥哥","type":3,"api":"csp_WoGG","searchable":1,"quickSearch":1,"changeable":0,"ext":"http://127.0.0.1:9978/file/tvbox/token.txt+4k|auto|fhd$$$https://api.wogg.xyz/$$$弹"},
{"key":"dr_iqiyi","name":"无界🌏爱奇异","type":3,"api":"./box/js/drpy2.min.js","ext":"./box/js/iqiyi.js"},
{"key":"dr_youku","name":"无界🌏优酷","type":3,"api":"./box/js/drpy2.min.js","ext":"./box/js/youku.js"},
{"key":"dr_qq","name":"无界🌏腾讯","type":3,"api":"./box/js/drpy2.min.js","ext":"./box/js/qq.js"},
{"key":"dr_mgtv","name":"无界🌏芒果","type":3,"api":"./box/js/drpy2.min.js","ext":"./box/js/mgtv.js"},
{"key":"dr_荐片","name":"无界🌏荐片","type":3,"api":"./box/js/drpy2.min.js","searchable":1,"playerType":1,"quickSearch":1,"filterable":1,"ext":"./box/js/荐片.js"},
{"key":"XYQHiker_哔嘀影视","name":"无界🌏哔嘀影视","type":3,"api":"csp_XYQHiker","searchable":1,"quickSearch":1,"filterable":1,"jar":"./box/spider/xyq.jar","ext":"./box/json/哔嘀影视.json"},
{"key":"dr_腾云驾雾","name":"无界🌏腾云驾雾","type":3,"api":"./box/js/drpy2.min.js","ext":"./box/js/腾云驾雾.js"},
{"key":"dr_奇珍异兽","name":"无界🌏奇珍异兽","type":3,"api":"./box/js/drpy2.min.js","ext":"./box/js/奇珍异兽.js"},
{"key":"dr_百忙无果","name":"无界🌏百忙无果","type":3,"api":"./box/js/drpy2.min.js","ext":"./box/js/百忙无果.js"},
{"key":"YGP","name":"无界🌏叨观荐影","type":3,"api":"csp_YGP","searchable":0,"quickSearch":0,"changeable":0},
{"key":"南坊","name":"无界🌏南坊直连","type":3,"api":"csp_AppMao","searchable":1,"quickSearch":1,"changeable":1,"ext":"FbjCcU1KqpC5pkRX4Q3D+NciPclIFs4EHzRV89m3pENRS6PivxPrlXvH/4efUSWwUCWwwk8srkIDSXN9RIJkSCZPJqnRikLRakBH0XBB6uNlX6XgMjhUKBTbBXopnsWdvXX6OowIBLQ78wghs3yRbgJxOYvrglBVIeI4cTcDGxixtMJ+yL0zE9g1d+N2RH4JERZh3CoYXSO1hH420ARbjt08lerroREmfGoT8JEGfTFW3MrK3hWueIyRsyOllsiwNM6dXSwTArm5em8Lv8ppXgro"},
{"key":"南瓜","name":"无界🌏南瓜直连","type":3,"api":"csp_NanGua","playerType":2,"searchable":1,"quickSearch":1,"changeable":1},
{"key":"dr_nangua","name":"无界🌏南瓜js","type":3,"api":"./box/js/drpy2.min.js","searchable":1,"quickSearch":1,"filterable":1,"ext":"./box/js/nangua.js"},
{"key":"77","name":"无界🌏七七直连","type":3,"api":"csp_Kunyu77","searchable":1,"quickSearch":1,"changeable":1},
{"key":"嘿嘿","name":"无界🌏嘿嘿直连","type":3,"api":"csp_AppMao","searchable":1,"quickSearch":1,"changeable":1,"ext":"FbjDcUxPqpfNr0QF4QvE6sExbcBEGIRZVnQTs7Kyyk1SScOZ8j/C1ATO/eqjASKwdHWA2zQtjGMwVDA+Ttluew9LCZzZnFyFNWEAlX0KjLdiSaX+NDNVdVG1JjEvnt3n7STfbcZ8C5QA+hYk60bwQH58e7eO7msRAJ0ZbmFDDly40NBDxuYsAq8lZuJzVkw0ZkMhqBM9YRPP8mMU/CJYsuBptunppHVQfFQjk8wxXjVRsNe75CuoY+zt9w+Smcm9PL37bGJHS6+1cFg1xMgqVxqvyPfuq5Dvyo1q66Q1NXwhDe4x21KVg4iRMET6Z3Jna25wcmku6xbznbFxlZqH3DqtpBKXLcNrx6n6vgn+/lHRmp5g13bG1xc/jwO78tZL0Pei6A=="},
{"key":"九六","name":"无界🌏九六直连","type":3,"api":"csp_Cs1369","playerType":2,"searchable":1,"quickSearch":1,"changeable":1},
{"key":"Czsapp","name":"无界🌏厂长直连","type":3,"api":"csp_Czsapp","playerType":2,"searchable":1,"quickSearch":1,"changeable":1,"ext":"https://www.czzy22.com/"},
{"key":"dr_czsapp","name":"无界🌏️厂长js","type":3,"api":"./box/js/drpy2.min.js","searchable":1,"quickSearch":1,"filterable":1,"ext":"./box/js/czspp.js"},
{"key":"橘子","name":"无界🌏橘子直连","type":3,"api":"csp_AppMao","searchable":1,"quickSearch":1,"changeable":1,"ext":"FbjDcUxPqpfNr0QF4QvE6sExbcJUCYdIVisPtbeywENfScyc6nTW0F+D7rX5HCm9c3SL03FsmGsmXS04XZMlbxEVW4/ZgwONbnobxj8KxeRpXqDxCWghfAf9JSR025yi92eOKqE9HokX9QQnl1WsU21CR4+dlEMDEsADd1xFGiiGtsh0vqJFAf41Z7sYL00hBBNM3xJsYyXCuX4BrzNYpZRwmcnwnXIHe2MtwbsJf0IAs6yM+y/ub+niyxOc2YuPbc/VUS4DGPqzelIi6plLWFvZ8+j2xcvAgopZxZFhBkIYCIIC5Uec/JW8RgW9WV1SKntGcmcd5yjIpagsmpXymH3a+FKzHKMB3LvXmR6onijWkP0VpivFgVVfjWrik4Yr0ZjZxKFA0uPQvy9l9EjPMNrQIj0sZjnpv7JmoMO+HfQ+lqKhJrQFq4MooyyGv6yhNv12IOHay3A="},
{"key":"49zy","name":"无界🌏四九资源","type":1,"api":"https://49zy1.com/api.php/provide/vod/?ac=list","searchable":1,"quickSearch":1,"filterable":1,"categories":["国产剧","纪录片","欧美剧","香港剧","动作片","爱情片","科幻片","恐怖片","剧情片","战争片","喜剧片","动画片","犯罪片","韩国剧","动漫","电影","大陆综艺","港台综艺","日韩综艺","欧美综艺","台湾剧","国产动漫","日本动漫","欧美动漫","泰国剧","日剧","电影解说","奇幻片","灾难片","悬疑片","其他片","体育赛事","海外剧"]},
{"key":"csp_鑫鑫影视","name":"无界🌏鑫鑫直连","type":3,"api":"csp_AppYsV2","searchable":1,"quickSearch":1,"filterable":1,"ext":"http://yingszj.xn--654a.cc/api.php/app/"},
{"key":"csp_益达影视","name":"无界🌏益达直连","type":3,"api":"csp_AppYsV2","searchable":1,"quickSearch":1,"filterable":1,"ext":"https://myd666.tv/lvdou_api.php/v1.vod"},
{"key":"dr_007","name":"无界🌏‍特工影视","type":3,"api":"./box/js/drpy2.min.js","searchable":1,"quickSearch":1,"filterable":1,"ext":"./box/js/007.js"},
{"key":"dr_555","name":"无界🌏三五影视","type":3,"api":"./box/js/drpy2.min.js","searchable":1,"quickSearch":1,"filterable":1,"ext":"./box/js/555.js"},
{"key":"dr_bzys","name":"无界🌏B站影视","type":3,"api":"./box/js/drpy2.min.js","searchable":1,"quickSearch":1,"filterable":1,"ext":"./box/js/bzys.js"},
{"key":"Lib","name":"无界🌏利播直连","type":3,"api":"csp_Libvio","searchable":1,"quickSearch":1,"changeable":1,"ext":"https://www.libvio.pro/"},
{"key":"dr_Lib","name":"无界🌏利播js","type":3,"api":"./box/js/drpy2.min.js","searchable":1,"quickSearch":1,"filterable":1,"ext":"./box/js/libvio.js"},
{"key":"dr_Xinsj","name":"无界🌏视觉影院","type":3,"api":"./box/js/drpy2.min.js","searchable":1,"quickSearch":1,"filterable":1,"ext":"./box/js/xsj.js"},
{"key":"dr_大师兄","name":"无界🌏师兄影视","type":3,"api":"./box/js/drpy2.min.js","searchable":1,"quickSearch":1,"filterable":1,"ext":"./box/js/大师兄影视.js"},
{"key":"dr_电影先生","name":"无界🌏电影先生","type":3,"api":"./box/js/drpy2.min.js","searchable":1,"quickSearch":1,"filterable":1,"ext":"./box/js/电影先生.js"},
{"key":"dr_骚火电影","name":"无界🌏骚火影视","type":3,"api":"./box/js/drpy2.min.js","searchable":1,"quickSearch":1,"filterable":1,"ext":"./box/js/saohuo.js"},
{"key":"csp_黑狐","name":"无界🌏黑狐影视","type":3,"api":"csp_XBPQ","searchable":1,"quickSearch":1,"filterable":1,"jar":"./box/spider/XM.jar","ext":"./box/json/黑狐影视.json"},
{"key":"csp_Free","name":"无界🌏️Free影院","type":3,"api":"csp_XBPQ","searchable":1,"quickSearch":1,"filterable":1,"jar":"./box/spider/XM.jar","ext":"./box/json/Free影视.json"},
{"key":"csp_Kuaikan","name":"无界🌏快看影视","type":3,"api":"csp_Kuaikan","searchable":1,"quickSearch":1,"filterable":1,"jar":"./box/spider/duo.jar"},
{"key":"csp_SNzy","name":"无界🌏索尼高清","type":1,"api":"https://suoniapi.com/api.php/provide/vod/?ac=list","searchable":1,"quickSearch":1,"filterable":1,"categories":["动作片","喜剧片","科幻片","恐怖片","爱情片","剧情片","战争片","记录片","国产剧","欧美剧","香港剧","韩国剧","台湾剧","日本剧","海外剧","泰国剧","国产动漫","日韩动漫","欧美动漫","港台动漫","海外动漫","大陆综艺","港台综艺","日韩综艺","欧美综艺"]},
{"key":"csp_TVB","name":"无界🌏TVB云播","type":3,"api":"csp_XBPQ","searchable":1,"quickSearch":1,"filterable":1,"jar":"./box/spider/XM.jar","ext":"./box/json/TVB云播.json"},
{"key":"csp_好戏","name":"无界🌏好戏影视","type":3,"api":"csp_XBPQ","searchable":1,"quickSearch":1,"filterable":1,"jar":"./box/spider/XM.jar","ext":"./box/json/好戏影视.json"},
{"key":"csp_xgapp","name":"无界🌏西瓜直连","type":3,"playerType":2,"api":"csp_AppYsV2","searchable":1,"quickSearch":1,"filterable":1,"ext":"https://www.gsjtlxy.top/xgapp.php/v3/"},
{"key":"csp_yaya","name":"无界🌏鸭鸭直连","type":3,"api":"csp_AppYsV2","searchable":1,"quickSearch":1,"ext":"https://yayayaaapp.ynf.icu/api.php/app/"},
{"key":"csp_爱看","name":"无界🌏爱看影视","type":3,"api":"csp_XBPQ","searchable":1,"quickSearch":1,"filterable":1,"jar":"./box/spider/XM.jar","ext":"./box/json/爱看影视.json"},
{"key":"csp_不卡","name":"无界🌏不卡影视","type":3,"api":"csp_XBPQ","searchable":1,"quickSearch":1,"filterable":1,"jar":"./box/spider/XM.jar","ext":"./box/json/真不卡影视.json"},
{"key":"csp_dadagui","name":"无界🌏达龟影视","type":3,"api":"csp_XPathFilter","searchable":1,"quickSearch":1,"filterable":1,"ext":"./box/json/达达龟.json"},
{"key":"csp_蛋蛋","name":"无界🌏蛋蛋影院","type":3,"api":"csp_XBPQ","searchable":1,"quickSearch":1,"filterable":1,"jar":"./box/spider/XM.jar","ext":"./box/json/蛋蛋影视.json"},
{"key":"csp_非凡","name":"无界🌏非凡资源1","type":3,"api":"csp_XBPQ","searchable":1,"quickSearch":1,"filterable":1,"jar":"./box/spider/XM.jar","ext":"./box/json/非凡资源网.json"},
{"key":"csp_非凡资源","name":"无界🌏非凡资源2","type":1,"api":"http://ffzy1.tv/api.php/provide/vod/","playurl":"json:http://jx.84jia.com/m3u8ts.php?url=","searchable":1,"quickSearch":1,"filterable":1,"categories":["动作片","喜剧片","科幻片","恐怖片","爱情片","剧情片","战争片","记录片","国产剧","欧美剧","香港剧","韩国剧","台湾剧","日本剧","海外剧","泰国剧","国产动漫","日韩动漫","欧美动漫","港台动漫","海外动漫","大陆综艺","港台综艺","日韩综艺","欧美综艺"]},
{"key":"csp_疯狗","name":"无界🌏疯狗影视","type":3,"api":"csp_XBPQ","searchable":1,"quickSearch":1,"filterable":1,"jar":"./box/spider/XM.jar","ext":"./box/json/疯狗影视.json"},
{"key":"量子资源","name":"无界🌏量子资源","type":1,"api":"http://cj.lziapi.com/api.php/provide/vod/","playurl":"json:http://jx.84jia.com/m3u8ts.php?url=","searchable":1,"quickSearch":1,"filterable":0,"categories":["国产剧","国产动漫","泰国剧","台湾剧","香港剧","欧美剧","韩国剧","日本剧","动漫","体育","剧情片","动作片","爱情片","喜剧片"]},
{"key":"csp_米爱","name":"无界🌏米爱影视","type":3,"api":"csp_XBPQ","searchable":1,"quickSearch":1,"filterable":1,"jar":"./box/spider/XM.jar","ext":"./box/json/米爱影视.json"},
{"key":"dr_农民","name":"无界🌏农民影视","type":3,"api":"./box/js/drpy2.min.js","searchable":1,"quickSearch":1,"filterable":1,"ext":"./box/js/nongmin.js"},
{"key":"csp_胖虎","name":"无界🌏胖虎影视","type":3,"api":"csp_XBPQ","searchable":1,"quickSearch":1,"filterable":1,"jar":"./box/spider/XM.jar","ext":"./box/json/胖虎.json"},
{"key":"csp_苹果","name":"无界🌏苹果影视","type":3,"api":"csp_XBPQ","searchable":1,"quickSearch":1,"filterable":1,"jar":"./box/spider/XM.jar","ext":"./box/json/苹果影视.json"},
{"key":"csp_七新","name":"无界🌏七新影视","type":3,"api":"csp_XBPQ","searchable":1,"quickSearch":1,"filterable":1,"jar":"./box/spider/XM.jar","ext":"./box/json/七新影视.json"},
{"key":"csp_七月","name":"无界🌏七月影视","type":3,"api":"csp_XBPQ","searchable":1,"quickSearch":1,"filterable":1,"jar":"./box/spider/XM.jar","ext":"./box/json/七月影视.json"},
{"key":"csp_奇优","name":"无界🌏奇优影院","type":3,"api":"csp_XBPQ","searchable":1,"quickSearch":1,"filterable":1,"jar":"./box/spider/XM.jar","ext":"./box/json/奇优影院.json"},
{"key":"csp_日后","name":"无界🌏348影视","type":3,"api":"csp_XBPQ","searchable":1,"quickSearch":1,"filterable":1,"jar":"./box/spider/XM.jar","ext":"./box/json/348影视.json"},
{"key":"csp_圣城","name":"无界🌏圣城影视","type":3,"api":"csp_XBPQ","searchable":1,"quickSearch":1,"filterable":1,"jar":"./box/spider/XM.jar","ext":"./box/json/圣城影视.json"},
{"key":"csp_视觉","name":"无界🌏视觉影视","type":3,"api":"csp_XBPQ","searchable":1,"quickSearch":1,"filterable":1,"jar":"./box/spider/XM.jar","ext":"./box/json/新视觉影视.json"},
{"key":"csp_土豪","name":"无界🌏土豪影视","type":3,"api":"csp_XBPQ","searchable":1,"quickSearch":1,"filterable":1,"jar":"./box/spider/XM.jar","ext":"./box/json/土豪影视.json"},
{"key":"csp_兔年","name":"无界🌏YYDS影视","type":3,"api":"csp_XBPQ","searchable":1,"quickSearch":1,"filterable":1,"jar":"./box/spider/XM.jar","ext":"./box/json/YYDS影视.json"},
{"key":"csp_万达","name":"无界🌏万达影视","type":3,"api":"csp_XBPQ","searchable":1,"quickSearch":1,"filterable":1,"jar":"./box/spider/XM.jar","ext":"./box/json/万达影视.json"},
{"key":"csp_午舞","name":"无界🌏午舞影视","type":3,"api":"csp_XBPQ","searchable":1,"quickSearch":1,"filterable":1,"jar":"./box/spider/XM.jar","ext":"./box/json/五五影视.json"},
{"key":"蜂鸟","name":"无界🌏蜂鸟直连","type":3,"api":"csp_AppSK","searchable":1,"quickSearch":1,"changeable":1,"ext":"FbjPcVZY48PN/RIZ5QqOrspjctNYHd8MCHVY/fi7wUpUQNqG/jfU2giXr76/DC+8eHSS1HMynmg3WiNrBtVgfEJASNqQ2hTVLzJC3SoblKA+CPO6c3h2LRrhcHl6z5b2unGGON8hEYJ29EtB6FH/E01cML7v6RxWYZMJfmBRNw=="},
{"key":"繁星","name":"无界🌏繁星直连","type":3,"api":"csp_AppMao","playerType":2,"searchable":1,"quickSearch":1,"changeable":1,"ext":"FbjDcUxPqpfNr0QF4QvE6sExbd4UXJxJXzdL462ywU1XScGa5G6Hj0/c+Ou1GW6rdX6N2XIhnD46QzIsRoZ8bk4fG4OYi0iCaWwRj2ddkacwFqHtLjQhalHqIy0+kpiTv2eOfJYxTshgrxcJ+g3lEHx7ZLC9kB1TCfZUSHwqHB3tt6V/1OhRENIOZNRFfXVBEFd7jQg+J06kjCAF7z1Bt8hRvMjC2VcbQXsEz8MCZDgu06C9/wirWcTa/wWJsfT+Z7fXaDs+dIWMYiwf6td5CWTx6LfL6eTuiMhs2KU5Byw9F+4Y/AHBg4r+LEe+Hm4EM2d8X3ca5zHSj+kjmpXOiGDo4TalFqgTq67eggmthCbV2d131SKc03V+5gruudQQk/Tb9e4lg6SQhA9/5kWOOM/LRmkqIxSt6d0wpu7yKKh65enwKbgasc93/HnGr6W4LuZjf6eYnS2GgRzWRE0fT5lYNmxnWeRnYuLhoZbDqslAfJzg"},
{"key":"忍者","name":"无界🌏忍者直连","type":3,"api":"csp_MYYS","searchable":1,"quickSearch":1,"changeable":1,"ext":"http://rzys.xyz"},
{"key":"一起看","name":"无界🌏一起直连","type":3,"api":"csp_YQKan","searchable":1,"quickSearch":1,"changeable":1},
{"key":"zxzj","name":"无界🌏在线直连","type":3,"api":"csp_Zxzj","searchable":1,"quickSearch":1,"changeable":1,"ext":"https://www.zxzj.pro/"},
{"key":"csp_Bttoo","name":"无界🌏比特直连","type":3,"api":"csp_Bttwoo","searchable":1,"quickSearch":1,"changeable":1},
{"key":"dr_低端","name":"无界🌏低端js","type":3,"api":"./box/js/drpy2.min.js","searchable":1,"playerType":2,"quickSearch":1,"filterable":1,"ext":"./box/js/ddys.js"},
{"key":"DiDuan","name":"无界🌏低端直连","type":3,"api":"csp_Ddrk","playerType":"2","searchable":1,"quickSearch":1,"changeable":1},
{"key":"Xinsj","name":"无界🌏视觉直连","type":3,"api":"csp_Xinsj","searchable":1,"quickSearch":1,"changeable":1,"ext":"https://www.hdmyy.com/"},
{"key":"Auete","name":"无界🌏奥特直连","type":3,"api":"csp_Auete","searchable":1,"quickSearch":1,"changeable":1,"ext":"https://haozhansou.com/"},
{"key":"csp_SP33","name":"无界🌏三三解析","type":3,"api":"csp_SP33","searchable":1,"quickSearch":1,"filterable":1,"changeable":0},
{"key":"贱贱","name":"无界🌏贱贱p2p","type":3,"searchable":1,"quickSearch":1,"changeable":1,"playerType":"1","api":"./box/js/drpy2.min.js","ext":"./box/js/jp.js"},
{"key":"csp_Btwtoo","name":"无界🌏两个鼻涕","type":3,"api":"csp_Bttwoo","searchable":1,"quickSearch":1,"filterable":1},
{"key":"csp_MeiJu69","name":"无界🌏六九美剧","type":3,"api":"csp_AppYsV2","searchable":1,"quickSearch":1,"filterable":1,"ext":"https://www.69mj.com/xgapp.php/v2/"},
{"key":"csp_beijihu","name":"无界🌏极狐直连","type":3,"api":"csp_AppYsV2","searchable":1,"quickSearch":1,"filterable":1,"ext":"https://www.kuin.one/api.php/app/"},
{"key":"cjzy_暴风资源","name":"无界🌏暴风影视","type":1,"api":"https://bfzyapi.com/api.php/provide/vod/?ac=list","playUrl":"","categories":["国产剧","国产动漫","大陆综艺","港台综艺","香港剧","台湾剧","日本剧","欧美剧","泰国剧","日本动漫","日本综艺","综艺频道","新马泰综艺","纪录片","科幻片","喜剧片","战争片"]},
{"key":"蚂蚁","name":"无界🌏蚂蚁直连","type":3,"api":"csp_MYYS","searchable":1,"quickSearch":1,"changeable":1,"ext":"http://rzys.xyz"},
{"key":"毛驴","name":"无界🌏毛驴直连","type":3,"api":"csp_MLYS","searchable":1,"quickSearch":1,"changeable":1,"ext":"https://www.maolvys.com/"},
{"key":"csp_XBPQ_aoaotv","name":"无界🌏短剧嗷嗷","type":3,"api":"csp_XBPQ","searchable":1,"quickSearch":1,"filterable":1,"jar":"./box/spider/XBPQ.jar","ext":{"分类url":"https://aoao.tv/vodshow/{cateId}--------{catePg}---.html","分类":"短剧$20#电视剧$21#电影$22#动漫$23#综艺$24"}},
{"key":"csp_XYQHiker_VSYY","name":"无界🌏短剧VSY","type":3,"searchable":1,"quickSearch":1,"filterable":1,"api":"csp_XYQHiker","jar":"./box/spider/XYQH.jar","ext":"./box/json/VS影院.json"},
{"key":"csp_短剧","name":"无界🌏刷刷短剧","type":3,"api":"csp_XBPQ","searchable":0,"quickSearch":0,"filterable":1,"jar":"./box/spider/XM.jar","ext":"./box/json/短剧网.json"},
{"key":"feisu","name":"无界🌏飞速采集","type":1,"api":"https://www.feisuzyapi.com/api.php/provide/vod/?ac=list","searchable":1,"filterable":0,"categories":["国产动漫","日本动漫","欧美动漫","海外动漫","大陆综艺","港台综艺","日韩综艺","欧美综艺","动作片","喜剧片","爱情片","科幻片","恐怖片","剧情片","战争片","国产剧","香港剧","欧美剧","韩国剧","台湾剧","日本剧","泰国剧","纪录片","动画片","电影解说","其他片","其他剧","体育赛事","短剧"]},
{"key":"奇虎资源","name":"无界🌏奇虎采集","type":1,"api":"https://caiji.qhzyapi.com/api.php/provide/vod/","playUrl":"","searchable":1,"quickSearch":1,"categories":["动作片","喜剧片","爱情片","科幻片","恐怖片","战争片","剧情片","伦理片","纪录片","国产剧","香港剧","韩国剧","欧美剧","日本剧","台湾剧","泰国剧","海外剧","国产动漫","日本动漫","欧美动漫","大陆综艺","港台综艺","欧美综艺","日韩综艺","动画片","体育","短剧","网络电影"]},
{"key":"taopian","name":"无界🌏淘片采集","type":1,"api":"https://taopianapi.com/cjapi/mc/vod/json.html","searchable":1,"filterable":0,"categories":["动漫/国产动漫","动漫/日本动漫","动漫/欧美动漫","动漫/海外动漫","综艺/大陆综艺","综艺/港台综艺","综艺/日韩综艺","综艺/欧美综艺","综艺/海外综艺","电视剧/国产剧","电视剧/香港剧","电视剧/欧美剧","电视剧/海外剧","电视剧/韩国剧","电视剧/日本剧","电视剧/泰国剧","电视剧/台湾剧","电影/战争片","电影/科幻片","电影/奇幻片","电影/冒险片","电影/动画片","电影/喜剧片","电影/动作片","电影/爱情片","电影/恐怖片","电影/惊悚片","电影/剧情片","电影/悬疑片","电影/纪录片"]},
{"key":"可可资源","name":"无界🌏可可采集","type":1,"api":"https://kekezy1.com/api.php/provide/vod/?ac=list","playUrl":"","searchable":1,"quickSearch":1,"categories":["动作片","喜剧片","爱情片","科幻片","恐怖片","战争片","剧情片","国产剧","香港剧","韩国剧","欧美剧","日本剧","台湾剧","泰国剧","海外剧","国产动漫","日本动漫","欧美动漫","大陆综艺","港台综艺","日韩综艺"]},
{"key":"百度","name":"无界🌏百度采集","type":1,"api":"https://api.apibdzy.com/api.php/provide/vod/?ac=list","searchable":1,"filterable":0},
{"key":"PanSearch","name":"无界🌏阿里PanS","type":3,"api":"csp_PanSearch","searchable":1,"quickSearch":1,"changeable":0,"ext":"http://127.0.0.1:9978/file/tvbox/token.txt+4k|auto|fhd"},
{"key":"PanSou","name":"无界🌏阿里盘搜","type":3,"api":"csp_PanSou","searchable":1,"quickSearch":1,"changeable":0,"ext":"http://127.0.0.1:9978/file/tvbox/token.txt+4k|auto|fhd"},
{"key":"UpYun","name":"无界🌏阿里云搜","type":3,"api":"csp_UpYun","searchable":1,"quickSearch":1,"changeable":0,"ext":"http://127.0.0.1:9978/file/tvbox/token.txt+4k|auto|fhd"},
{"key":"YiSo","name":"无界🌏易搜搜索","type":3,"api":"csp_YiSo","searchable":1,"quickSearch":1,"changeable":0,"ext":"http://127.0.0.1:9978/file/tvbox/token.txt+4k|auto|fhd"},
{"key":"Yisou","name":"无界🌏阿里易搜","type":3,"api":"csp_YiSou","searchable":1,"quickSearch":1,"filterable":0,"jar":"./box/spider/XBPQ.jar","ext":"http://127.0.0.1:9978/file/tvbox/token.txt+4k|fhd|auto"},
{"key":"七夜","name":"无界🌏阿里七夜","type":3,"api":"csp_Dovx","searchable":1,"quickSearch":1,"changeable":0,"ext":"http://127.0.0.1:9978/file/tvbox/token.txt+4k|auto|fhd"},
{"key":"js_4KHDR","name":"无界🌏世界磁力","type":3,"searchable":1,"quickSearch":1,"changeable":0,"api":"./box/js/drpy2.min.js","ext":"./box/js/4khdr.js"},
{"key":"js_酷吧","name":"无界🌏酷吧磁力","type":3,"api":"./box/js/drpy2.min.js","searchable":1,"quickSearch":1,"filterable":1,"ext":"./box/js/kuba.js"},
{"key":"新6V","name":"无界🌏6V磁力1","type":3,"api":"csp_SixV","searchable":1,"quickSearch":1,"changeable":0,"ext":"http://www.xb6v.com/"},
{"key":"js_6V","name":"无界🌏6V磁力2","type":3,"api":"./box/js/drpy2.min.js","searchable":1,"quickSearch":1,"filterable":1,"ext":"./box/js/6V.js"},
{"key":"js_磁力熊","name":"无界🌏贝尔磁力","type":3,"api":"./box/js/drpy2.min.js","searchable":1,"quickSearch":1,"filterable":1,"ext":"./box/js/bear.js"},
{"key":"88js","name":"无界🌏88看球","type":3,"api":"./box/js/drpy2.min.js","ext":"./box/js/88看球.js","style":{"type":"list"},"searchable":0,"quickSearch":0,"changeable":0},
{"key":"csp_qiumi","name":"无界🌏Jrs球迷","type":3,"api":"./box/js/drpy2.min.js","ext":"./box/js/jrk.js","style":{"type":"list"},"searchable":0,"quickSearch":0,"changeable":0},
{"key":"csp_310直播","name":"无界🌏310看球","type":3,"api":"./box/js/drpy2.min.js","ext":"./box/js/310直播.js","style":{"type":"list"},"searchable":0,"quickSearch":0,"changeable":0},
{"key":"csp_XPath_企鹅体育","name":"无界🌏企鹅体育js","type":3,"api":"csp_XPath","style":{"type":"list"},"searchable":0,"quickSearch":0,"changeable":0,"ext":"./box/json/企鹅直播.json"},
{"key":"py_qie","name":"无界🌏企鹅体育py","type":3,"api":"py_qie","searchable":0,"quickSearch":0,"filterable":1,"ext":"./box/py/qie.py"},
{"key":"csp_Bili_FBqx","name":"无界🌏球队球星","type":3,"api":"csp_Bili","searchable":0,"quickSearch":0,"filterable":1,"jar":"./box/spider/XM.jar","ext":"./box/json/qiudui.json"},
{"key":"csp_Bili_TYjs","name":"无界🌏体育健身","type":3,"api":"csp_Bili","searchable":0,"quickSearch":0,"filterable":1,"jar":"./box/spider/XM.jar","ext":"./box/json/tiyu.json"},
{"key":"csp_Bili_xiangsh","name":"无界🌏相声小品","type":3,"api":"csp_Bili","searchable":0,"quickSearch":0,"filterable":1,"jar":"./box/spider/XM.jar","ext":"./box/json/xiaopin.json"},
{"key":"csp_Bili_xuqu1","name":"无界🌏戏曲合集","type":3,"api":"csp_Bili","searchable":0,"quickSearch":0,"filterable":1,"jar":"./box/spider/XM.jar","ext":"./box/json/xiqu.json"},
{"key":"csp_Bili_yanchh","name":"无界🌏歌手合集","type":3,"api":"csp_Bili","searchable":0,"quickSearch":0,"filterable":1,"jar":"./box/spider/XM.jar","ext":"./box/json/geshou.json"},
{"key":"csp_Bili_Yinl2","name":"无界🌏音悦合集","type":3,"api":"csp_Bili","searchable":0,"quickSearch":0,"filterable":1,"jar":"./box/spider/XM.jar","ext":"./box/json/yinyue.json"},
{"key":"csp_酷奇","name":"无界🌏酷奇音乐","type":3,"api":"csp_XBPQ","searchable":0,"quickSearch":0,"filterable":0,"jar":"./box/spider/XM.jar","ext":"./box/json/酷奇MV.json"},
{"key":"Bili","name":"无界🌏哔哩合集","type":3,"api":"csp_Bili","style":{"type":"rect","ratio":1.597},"searchable":1,"quickSearch":0,"changeable":0,"ext":"./box/json/bilibili.json"},
{"key":"Biliych","name":"无界🌏哔哩歌曲","type":3,"api":"csp_Bili","style":{"type":"rect","ratio":1.597},"searchable":1,"quickSearch":0,"changeable":0,"ext":"./box/json/biliych.json"},
{"key":"js_a8音乐","name":"无界🌏奥迪音乐","type":3,"api":"./box/js/drpy2.min.js","searchable":1,"quickSearch":1,"filterable":1,"ext":"./box/js/a8音乐.js"},
{"key":"csp_Bili_MTV","name":"无界🌏歌曲演唱","type":3,"api":"csp_Bili","searchable":0,"quickSearch":0,"filterable":1,"jar":"./box/spider/XM.jar","ext":"./box/json/mtv.json"},
{"key":"csp_Bili_Meinvw","name":"无界🌏美女舞蹈","type":3,"api":"csp_Bili","searchable":0,"quickSearch":0,"filterable":1,"jar":"./box/spider/XM.jar","ext":"./box/json/meinv.json"},
{"key":"csp_Bili_Nvtuan","name":"无界🌏女团热舞","type":3,"api":"csp_Bili","searchable":0,"quickSearch":0,"filterable":1,"jar":"./box/spider/XM.jar","ext":"./box/json/nvtuan.json"},
{"key":"js_B站精简","name":"无界🌏哔哩精简","type":3,"api":"./box/js/drpy2.min.js","searchable":0,"quickSearch":0,"filterable":1,"ext":"./box/js/B站精简.js"},
{"key":"酷奇js","name":"无界🌏酷奇MV","type":3,"api":"./box/js/drpy2.min.js","ext":"./box/js/酷奇MV.js","style":{"type":"rect","ratio":1.597},"searchable":0,"quickSearch":0,"changeable":0},
{"key":"短视频","name":"无界🌏网红美女","type":3,"api":"csp_XBPQ","searchable":0,"quickSearch":0,"filterable":0,"jar":"./box/spider/XM.jar","ext":"./box/json/短视频聚合.json"},
{"key":"虎牙直播js","name":"无界🌏虎牙直播","type":3,"api":"./box/js/drpy2.min.js","ext":"./box/js/虎牙直播.js","style":{"type":"rect","ratio":1.755},"searchable":0,"quickSearch":0,"changeable":0},
{"key":"js_哔哩直播","name":"无界🌏哔哩直播","type":3,"api":"./box/js/drpy2.min.js","searchable":0,"quickSearch":0,"filterable":0,"ext":"./box/js/哔哩直播.js"},
{"key":"js_武享吧","name":"无界🌏格斗直播","type":3,"api":"./box/js/drpy2.min.js","searchable":1,"quickSearch":1,"filterable":0,"ext":"./box/js/武享吧.js"},
{"key":"csp_Yj1211","name":"无界🌏网红直播","type":3,"api":"csp_Yj1211","searchable":1,"quickSearch":1,"changeable":1},
{"key":"csp_XYQBiu_斗鱼","name":"无界🌏斗鱼直播","type":3,"api":"./box/js/drpy2.min.js","ext":"./box/js/斗鱼直播.js","style":{"type":"list"},"searchable":0,"quickSearch":0,"changeable":0},
{"key":"JustLive","name":"无界🌏JustLive","type":3,"api":"csp_JustLive","searchable":1,"changeable":0,"jar":"./box/spider/custom_spider.jar"},
{"key":"csp_聚短视频","name":"无界🌏聚短视频","type":3,"api":"./box/js/drpy2.min.js","ext":"./box/js/短视频.js","searchable":0,"quickSearch":0,"changeable":0},
{"key":"有声小说js","name":"无界🌏有声小说","type":3,"api":"./box/js/drpy2.min.js","ext":"./box/js/有声小说吧.js","style":{"type":"rect","ratio":1},"searchable":0,"quickSearch":0,"changeable":0},
{"key":"csp_Dm84","name":"无界🌏动漫巴士","type":3,"api":"csp_Dm84","searchable":1,"quickSearch":1,"changeable":1},
{"key":"csp_Ying","name":"无界🌏樱花动漫","type":3,"api":"csp_Ying","searchable":1,"quickSearch":1,"changeable":1},
{"key":"csp_Ysj","name":"无界🌏异界动漫","type":3,"api":"csp_Ysj","searchable":1,"quickSearch":1,"changeable":1},
{"key":"csp_Anime1","name":"无界🌏日本动漫","type":3,"api":"csp_Anime1","searchable":1,"quickSearch":1,"changeable":1},
{"key":"mtv_xp_维奇动漫","name":"无界🌏维奇动漫","type":3,"api":"csp_XBPQ","searchable":0,"quickSearch":0,"filterable":1,"jar":"./box/spider/XM.jar","ext":"./box/json/维奇动漫.json"},
{"key":"py_cctv_少儿","name":"无界🌏央视少儿py","type":3,"api":"py_cctv_full","searchable":0,"quickSearch":0,"filterable":1,"jar":"./box/spider/XM.jar","ext":"./box/json/py_央视少儿.py"},
{"key":"央视经典","name":"无界🌏央视经典","type":3,"api":"csp_Bili","searchable":0,"quickSearch":1,"filterable":1,"jar":"./box/spider/XM.jar","ext":"./box/json/哔哩经典.json"},
{"key":"py_cctv","name":"无界🌏央视大全py","type":3,"api":"py_cctv","searchable":0,"quickSearch":0,"filterable":1,"ext":"./box/py/cctv.py"},
{"key":"cctv","name":"无界🌏央视大全js","type":3,"api":"csp_CCTV","searchable":0,"filterable":0,"jar":"./box/spider/XM.jar","ext":"./box/json/央视大全.json"},
{"key":"csp_Bili_meishi","name":"无界🌏美食合集","type":3,"api":"csp_Bili","searchable":0,"quickSearch":0,"filterable":1,"jar":"./box/spider/XM.jar","ext":"./box/json/美食合集.json"},
{"key":"csp_Bili__dapei","name":"无界🌏搭配教程","type":3,"api":"csp_Bili","searchable":0,"quickSearch":0,"filterable":1,"jar":"./box/spider/XM.jar","ext":"./box/json/搭配.json"},
{"key":"csp_Bili_dashan","name":"无界🌏搭讪教程","type":3,"api":"csp_Bili","searchable":0,"quickSearch":0,"filterable":1,"jar":"./box/spider/XM.jar","ext":"./box/json/搭讪.json"},
{"key":"csp_Bili_zyy","name":"无界🌏中医药区","type":3,"api":"csp_Bili","searchable":0,"quickSearch":0,"filterable":1,"jar":"./box/spider/XM.jar","ext":"./box/json/zyy.json"},
{"key":"Aid","name":"无界🌏急救教学","type":3,"api":"csp_FirstAid","searchable":0,"quickSearch":0,"changeable":0,"style":{"type":"rect","ratio":3.8}},
{"key":"dr_童趣","name":"无界🌏童趣播视","type":3,"api":"./box/js/drpy2.min.js","searchable":1,"quickSearch":1,"filterable":1,"ext":"./box/js/童趣.js"},
{"key":"dr_兔小贝","name":"无界🌏儿童启蒙","type":3,"api":"./box/js/drpy2.min.js","ext":"./box/js/兔小贝.js","style":{"type":"rect","ratio":1.597},"searchable":0,"quickSearch":0,"changeable":0},
{"key":"csp_Bili_youer","name":"无界🌏幼儿教育","type":3,"api":"csp_Bili","searchable":0,"quickSearch":0,"filterable":1,"jar":"./box/spider/XM.jar","ext":"./box/json/youer.json"},
{"key":"少儿教育","name":"无界🌏少儿教育","type":3,"api":"csp_Bili","style":{"type":"rect","ratio":1.597},"searchable":0,"quickSearch":0,"changeable":0,"ext":"./box/json/少儿教育.json"},
{"key":"小学课堂","name":"无界🌏小学课堂","type":3,"api":"csp_Bili","style":{"type":"rect","ratio":1.597},"searchable":0,"quickSearch":0,"changeable":0,"ext":"./box/json/小学课堂.json"},
{"key":"初中课堂","name":"无界🌏初中课堂","type":3,"api":"csp_Bili","style":{"type":"rect","ratio":1.597},"searchable":0,"quickSearch":0,"changeable":0,"ext":"./box/json/初中课堂.json"},
{"key":"高中教育","name":"无界🌏高中课堂","type":3,"api":"csp_Bili","style":{"type":"rect","ratio":1.597},"searchable":0,"quickSearch":0,"changeable":0,"ext":"./box/json/高中课堂.json"},
{"key":"csp_Nbys","name":"无界🌏请勿相信视频中的任何广告","type":3,"api":"csp_NiNi","searchable":1,"quickSearch":1,"changeable":1},
{"key":"csp_trj","name":"无界🌏Sina微博@·王健·","type":3,"api":"csp_Tangrenjie","searchable":1,"quickSearch":1,"changeable":1},
{"key":"push_agent","name":"无界🌏手机推送","type":3,"api":"csp_Push","searchable":0,"quickSearch":0,"ext":"http://127.0.0.1:9978/file/tvbox/token.txt+4k|auto|fhd"}

],


"parses":[
    
{"name":"聚合","type":3,"url":"Demo"},
{"name":"Sina微博@·王健·","type":1,"url":"http://api.888484.xyz/神秘哥哥/super.php?v=","ext":{"flag":["qq","腾讯","qiyi","爱奇艺","奇艺","youku","优酷","tucheng","sohu","搜狐","letv","乐视","mgtv","芒果","tnmb","seven","yzm","aliyun","RJuMao","bilibili","1905","xinvip","XAL","qiqi","XALS","YuMi-vip"]}},
{"name":"无界","type":0,"url":"https://jx.xmflv.com/?url=","ext":{"flag":["qq","腾讯","qiyi","爱奇艺","奇艺","youku","优酷","mgtv","芒果","imgo","letv","乐视","pptv","PPTV","sohu","bilibili","哔哩哔哩","哔哩"],"header":{"User-Agent":"okhttp/4.1.0"}}},
{"name":"免费分享","url":"https://www.8090.la/8090/?url=","type":0,"ext":{"flag":["qiyi","imgo","爱奇艺","奇艺","qq","腾讯","youku","优酷","pptv","PPTV","letv","乐视","leshi","bilibili","哔哩哔哩","哔哩","mgtv","芒果","sohu","xigua","fun","风行"],"header":{"User-Agent":"Mozilla/5.0"}},"header":{"User-Agent":"Mozilla/5.0"}},
{"name":"QQ群48481548","type":0,"url":"https://jx.m3u8.tv/jiexi/?url="},
{"name":"PM","url":"https://www.playm3u8.cn/jiexi.php?url=","type":0,"ext":{"flag":["qiyi","imgo","爱奇艺","奇艺","qq","腾讯","youku","优酷","pptv","PPTV","letv","乐视","leshi","bilibili","哔哩哔哩","哔哩","mgtv","芒果","sohu","xigua","fun","风行"],"header":{"User-Agent":"Mozilla/5.0"}},"header":{"User-Agent":"Mozilla/5.0"}},
{"name":"爱豆","type":0,"url":"https://jx.aidouer.net/?url=","ext":{"header":{"user-agent":"Mozilla/5.0(Linux;Android13;V2049ABuild/TP1A.220624.014;wv)AppleWebKit/537.36(KHTML,likeGecko)Version/4.0Chrome/116.0.0.0MobileSafari/537.36","referer":"https://jiejie.uk/"}}}, 
{"name":"看看","type":0,"url":"https://jx.m3u8.pw/?url="},
{"name":"米饭","type":1,"url":"https://api.json.icu/api/?key=b1f3b1a9e1c0a42ae969db10bd315a95&url=","ext":{"flag":["爱奇艺","奇艺","qq","腾讯","youku","优酷","pptv","PPTV","letv","乐视","leshi","bilibili","哔哩哔哩","哔哩","mgtv","芒果","芒果"],"header":{"User-Agent":"okhttp/4.1.0"}}},
{"name":"巧技","type":1,"url":"http://pandown.pro/app/kkdy.php?url=","ext":{"flag":["qq","腾讯","qiyi","爱奇艺","奇艺","youku","优酷","sohu","搜狐","letv","乐视","mgtv","芒果","rx","ltnb","bilibili","1905","xigua"]}},
{"name":"全民","url":"http://api.wpsseo.cn/?v=","type":0,"ext":{"flag":["qiyi","imgo","爱奇艺","奇艺","qq","腾讯","youku","优酷","pptv","PPTV","letv","乐视","leshi","bilibili","哔哩哔哩","哔哩","mgtv","芒果","sohu","xigua","fun","风行"],"header":{"User-Agent":"Mozilla/5.0"}},"header":{"User-Agent":"Mozilla/5.0"}},
{"name":"世界","type":1,"url":"http://175.178.183.192:84/api/?key=f3913eb3f85a8298b3e6e427b8712b2e&url=","ext":{"flag":["qq","mgtv","YuMi-vip"]}},
{"name":"虾米","type":0,"url":"https://jx.xmflv.com/?url=","ext":{"flag":["qq","腾讯","qiyi","爱奇艺","奇艺","youku","优酷","sohu","搜狐","letv","乐视","mgtv","芒果","imgo","rx","ltnb","bilibili","1905","xigua"]}},
{"name":"咸鱼","type":0,"url":"https://jx.xyflv.cc/?url=","ext":{"header":{"user-agent":"Mozilla/5.0(Linux;Android13;V2049ABuild/TP1A.220624.014;wv)AppleWebKit/537.36(KHTML,likeGecko)Version/4.0Chrome/116.0.0.0MobileSafari/537.36","referer":"https://www.xyflv.cc/"}}},
{"name":"云解析","type":0,"url":"https://jx.yparse.com/index.php?url=","ext":{"header":{"user-agent":"Mozilla/5.0(Linux;Android13;V2049ABuild/TP1A.220624.014;wv)AppleWebKit/537.36(KHTML,likeGecko)Version/4.0Chrome/116.0.0.0MobileSafari/537.36"}}},
{"name":"左岸","type":1,"url":"https://api.tyun77.cn/api.php/provide/parseDicturl?url=","ext":{"flag":["爱奇艺","奇艺","qq","腾讯","youku","优酷","pptv","PPTV","letv","乐视","leshi","bilibili","哔哩哔哩","哔哩","mgtv","芒果","芒果"],"header":{"User-Agent":"okhttp/3.12.0"}}}

],


"doh":[
{"name":"AdGuard","url":"https://dns.adguard.com/dns-query","ips":["94.140.14.140","94.140.14.141"]},
{"name":"Cloudflare","url":"https://cloudflare-dns.com/dns-query","ips":["1.1.1.1","1.0.0.1","2606:4700:4700::1111","2606:4700:4700::1001"]},
{"name":"DNSWatch","url":"https://resolver2.dns.watch/dns-query","ips":["84.200.69.80","84.200.70.40"]},
{"name":"Google","url":"https://dns.google/dns-query","ips":["8.8.4.4","8.8.8.8"]},
{"name":"Quad9","url":"https://dns.quad9.net/dns-quer","ips":["9.9.9.9","149.112.112.112"]}

],


"rules":[
{"host":"dyxs20.com","rule":[".m3u8"]},
{"host":"v.douyin.com","rule":["playwm/?video_id="]},
{"host":"www.agemys.cc","rule":["cdn-tos","obj/tos-cn"]},
{"host":"www.iesdouyin.com","rule":["playwm/?video_id="]},
{"host":"www.sharenice.net","rule":["http.*?/play.{0,3}\\?[^url]{2,8}=.*","qianpailive.com","vid="]},
{"host":"www.ysgc.vip","rule":["getm3u8?url=http"]},
{"name":"bf","hosts":["bfzy"],"regex":["#EXT-X-DISCONTINUITY\\r*\\n*#EXTINF:3,[\\s\\S]*?#EXT-X-DISCONTINUITY"]},
{"name":"cl","hosts":["magnet"],"regex":["最新","直播","更新"]},
{"name":"dy","hosts":["douyin.com"],"regex":["is_play_url="]},
{"name":"hs","hosts":["huoshan.com"],"regex":["item_id="]},
{"name":"hwk","hosts":["haiwaikan"],"regex":["10.0099","10.3333","16.0599","8.1748","10.85"]},
{"name":"lz","hosts":["vip.lz","hd.lz","v.cdnlz1","v.cdnlz"],"regex":["18.5333"]},
{"name":"nm","hosts":["toutiaovod.com"],"regex":["video/tos/cn"]},
{"name":"proxy","hosts":["raw.githubusercontent.com","googlevideo.com","cdn.v82u1l.com","cdn.iz8qkg.com","cdn.kin6c1.com","c.biggggg.com","c.olddddd.com","haiwaikan.com","www.histar.tv","youtube.com","uhibo.com",".*boku.*",".*nivod.*",".*ulivetv.*"]},
{"name":"sn","hosts":["suonizy"],"regex":["15.1666","15.2666"]},
{"name":"xx","hosts":["aws.ulivetv.net"],"regex":["#EXT-X-DISCONTINUITY\\r*\\n*#EXTINF:8,[\\s\\S]*?#EXT-X-DISCONTINUITY"]},
{"name":"yqk","hosts":["yqk88"],"regex":["18.4","15.1666"]},
{"name":"暴风","hosts":["bfzy","bfbfvip"],"regex":["#EXTINF.*?\\s+.*?adjump.*?\\.ts\\s+"]},
{"name":"非凡","hosts":["vip.ffzy","hd.ffzy"],"regex":["20.52","#EXT-X-DISCONTINUITY\\r*\\n*#EXTINF:7\\.400000,[\\s\\S]*?#EXT-X-DISCONTINUITY","#EXTINF.*?\\s+.*?1170(20|32).*?\\.ts\\s+","#EXTINF.*?\\s+.*?116977.*?\\.ts\\s+"]},
{"name":"非凡","hosts":["vip.ffzy","hd.ffzy"],"regex":["25.0666"]},
{"name":"快看","hosts":["kuaikan"],"regex":["#EXT-X-KEY:METHOD=NONE\\r*\\n*#EXTINF:5,[\\s\\S]*?#EXT-X-DISCONTINUITY","#EXT-X-KEY:METHOD=NONE\\r*\\n*#EXTINF:2\\.4,[\\s\\S]*?#EXT-X-DISCONTINUITY"]},
{"name":"量子","hosts":["vip.lz","hd.lz",".cdnlz"],"regex":["#EXT-X-DISCONTINUITY\\r*\\n*#EXTINF:6\\.666667,[\\s\\S]*?#EXT-X-DISCONTINUITY","#EXTINF.*?\\s+.*?1o.*?\\.ts\\s+"]},
{"name":"毛驢","hosts":["www.maolvys.com"],"script":["document.getElementsByClassName('swal-buttonswal-button--confirm')[0].click()"]}, 
{"name":"七新嗅探","hosts":["api.52wyb.com"],"regex":["m3u8?pt=m3u8"]},
{"name":"索尼","hosts":["suonizy"],"regex":["#EXT-X-DISCONTINUITY\\r*\\n*#EXTINF:1\\.000000,[\\s\\S]*?#EXT-X-DISCONTINUITY","#EXTINF.*?\\s+.*?p1ayer.*?\\.ts\\s+","#EXTINF.*?\\s+.*?\\/video\\/original.*?\\.ts\\s+"]},
{"name":"夜市","hosts":["yeslivetv.com"],"script":["document.getElementsByClassName('vjs-big-play-button')[0].click()"]}

],

"ijk":[  
{"group":"软解码","options":[{"category":4,"name":"opensles","value":"0"},{"category":4,"name":"overlay-format","value":"842225234"},{"category":4,"name":"framedrop","value":"1"},{"category":4,"name":"soundtouch","value":"1"},{"category":4,"name":"start-on-prepared","value":"1"},{"category":1,"name":"http-detect-range-support","value":"0"},{"category":1,"name":"fflags","value":"fastseek"},{"category":2,"name":"skip_loop_filter","value":"48"},{"category":4,"name":"reconnect","value":"1"},{"category":4,"name":"enable-accurate-seek","value":"0"},{"category":4,"name":"mediacodec","value":"0"},{"category":4,"name":"mediacodec-auto-rotate","value":"0"},{"category":4,"name":"mediacodec-handle-resolution-change","value":"0"},{"category":4,"name":"mediacodec-hevc","value":"0"},{"category":1,"name":"dns_cache_timeout","value":"600000000"}]},
{"group":"硬解码","options":[{"category":4,"name":"opensles","value":"0"},{"category":4,"name":"overlay-format","value":"842225234"},{"category":4,"name":"framedrop","value":"1"},{"category":4,"name":"soundtouch","value":"1"},{"category":4,"name":"start-on-prepared","value":"1"},{"category":1,"name":"http-detect-range-support","value":"0"},{"category":1,"name":"fflags","value":"fastseek"},{"category":2,"name":"skip_loop_filter","value":"48"},{"category":4,"name":"reconnect","value":"1"},{"category":4,"name":"enable-accurate-seek","value":"0"},{"category":4,"name":"mediacodec","value":"1"},{"category":4,"name":"mediacodec-auto-rotate","value":"1"},{"category":4,"name":"mediacodec-handle-resolution-change","value":"1"},{"category":4,"name":"mediacodec-hevc","value":"1"},{"category":1,"name":"dns_cache_timeout","value":"600000000"}]}
	],

"ads": [
"ae01.alicdn.com",
"api.htpan.net",
"c.cnzz.com",
"cdn.bootcss.com",
"cdnjs.hnfenxun.com",
"cms.qdwght.com",
"cnzz.hhttm.top",
"cnzz.mmstat.com",
"ehwe.yhdtns.com",
"f5w.as12df.top",
"hm.baidu.com",
"img.mosflower.cn",
"img.xunzhuo123.com",
"k.jinxiuzhilv.com",
"k.wudejia.com",
"mav.mavuz.com",
"mc.usihnbcq.cn",
"mg.g1mm3d.cn",
"mimg.0c1q0l.cn",
"mscs.svaeuzh.cn",
"ppl.xunzhuo123.com",
"q11.cnzz.com",
"qiu.xixiqiu.com",
"s13.cnzz.com",
"s19.cnzz.com",
"s23.cnzz.com",
"s4.cnzz.com",
"s9.cnzz.com",
"s96.cnzz.com",
"sp.chemacid.cn",
"stj.v1vo.top",
"thy.dacedsfa.cn",
"tips.gamevvip.com",
"tj.tianwenhu.com",
"tp.vinuxhome.com",
"um.cavuc.com",
"vivovip.mmszxc.top",
"wofwk.aoidf3.com",
"www.92424.cn",
"www.baihuillq.com",
"www.google-analytics.com",
"www.googletagmanager.com",
"www.jixunkyy.cn",
"xc.hubeijieshikj.cn",
"xdn.cqqc3.com",
"xg.gars57.cn",
"xg.huataisangao.cn",
"xg.huataisangao.cn",
"xg.whsbpw.cn",
"xomk.jiangjunmh.top",
"z1.cnzz.com",
"z12.cnzz.com",
"z2.cnzz.com",
"z3.cnzz.com",
"z5.cnzz.com",
"z6.cnzz.com",
"z7.cnzz.com",
"z8.cnzz.com"

]


}
